\relax 
\providecommand\hyper@newdestlabel[2]{}
\providecommand*\new@tpo@label[2]{}
\bibstyle{biblatex}
\bibdata{expose-blx,db}
\citation{biblatex-control}
\abx@aux@sortscheme{nty}
\abx@aux@refcontext{nty/global/}
\providecommand\HyperFirstAtBeginDocument{\AtBeginDocument}
\HyperFirstAtBeginDocument{\ifx\hyper@anchor\@undefined
\global\let\oldcontentsline\contentsline
\gdef\contentsline#1#2#3#4{\oldcontentsline{#1}{#2}{#3}}
\global\let\oldnewlabel\newlabel
\gdef\newlabel#1#2{\newlabelxx{#1}#2}
\gdef\newlabelxx#1#2#3#4#5#6{\oldnewlabel{#1}{{#2}{#3}}}
\AtEndDocument{\ifx\hyper@anchor\@undefined
\let\contentsline\oldcontentsline
\let\newlabel\oldnewlabel
\fi}
\fi}
\global\let\hyper@last\relax 
\gdef\HyperFirstAtBeginDocument#1{#1}
\providecommand\HyField@AuxAddToFields[1]{}
\providecommand\HyField@AuxAddToCoFields[2]{}
\@writefile{toc}{\boolfalse {citerequest}\boolfalse {citetracker}\boolfalse {pagetracker}\boolfalse {backtracker}\relax }
\@writefile{lof}{\boolfalse {citerequest}\boolfalse {citetracker}\boolfalse {pagetracker}\boolfalse {backtracker}\relax }
\@writefile{lot}{\boolfalse {citerequest}\boolfalse {citetracker}\boolfalse {pagetracker}\boolfalse {backtracker}\relax }
\select@language{english}
\@writefile{toc}{\defcounter {refsection}{0}\relax }\@writefile{toc}{\select@language{english}}
\@writefile{lof}{\defcounter {refsection}{0}\relax }\@writefile{lof}{\select@language{english}}
\@writefile{lot}{\defcounter {refsection}{0}\relax }\@writefile{lot}{\select@language{english}}
\citation{Brumley1999}
\abx@aux@cite{Brumley1999}
\abx@aux@segm{0}{0}{Brumley1999}
\citation{Ray2007}
\abx@aux@cite{Ray2007}
\abx@aux@segm{0}{0}{Ray2007}
\citation{Ray2007}
\abx@aux@segm{0}{0}{Ray2007}
\citation{Levine2006}
\abx@aux@cite{Levine2006}
\abx@aux@segm{0}{0}{Levine2006}
\citation{Drake2018}
\abx@aux@cite{Drake2018}
\abx@aux@segm{0}{0}{Drake2018}
\@writefile{toc}{\defcounter {refsection}{0}\relax }\@writefile{toc}{\contentsline {section}{\numberline {1}Problem Description}{2}{section.1}}
\@writefile{toc}{\defcounter {refsection}{0}\relax }\@writefile{toc}{\contentsline {section}{\numberline {2}Motivation}{2}{section.2}}
\@writefile{toc}{\defcounter {refsection}{0}\relax }\@writefile{toc}{\contentsline {section}{\numberline {3}Expected Results}{2}{section.3}}
\citation{Bui2018}
\abx@aux@cite{Bui2018}
\abx@aux@segm{0}{0}{Bui2018}
\citation{Augusto}
\abx@aux@cite{Augusto}
\abx@aux@segm{0}{0}{Augusto}
\citation{Mello}
\abx@aux@cite{Mello}
\abx@aux@segm{0}{0}{Mello}
\citation{Roemheld}
\abx@aux@cite{Roemheld}
\abx@aux@segm{0}{0}{Roemheld}
\citation{Leibowitz2016}
\abx@aux@cite{Leibowitz2016}
\abx@aux@segm{0}{0}{Leibowitz2016}
\@writefile{toc}{\defcounter {refsection}{0}\relax }\@writefile{toc}{\contentsline {section}{\numberline {4}Methodological Approach}{3}{section.4}}
\@writefile{toc}{\defcounter {refsection}{0}\relax }\@writefile{toc}{\contentsline {section}{\numberline {5}State of the Art}{3}{section.5}}
\@writefile{toc}{\defcounter {refsection}{0}\relax }\@writefile{toc}{\contentsline {section}{\numberline {6}Table of Contents}{4}{section.6}}
\newlabel{LastPage}{{}{5}{}{page.5}{}}
\xdef\lastpage@lastpage{5}
\xdef\lastpage@lastpageHy{5}
\abx@aux@refcontextdefaultsdone
\abx@aux@defaultrefcontext{0}{Augusto}{nty/global/}
\abx@aux@defaultrefcontext{0}{Brumley1999}{nty/global/}
\abx@aux@defaultrefcontext{0}{Bui2018}{nty/global/}
\abx@aux@defaultrefcontext{0}{Drake2018}{nty/global/}
\abx@aux@defaultrefcontext{0}{Leibowitz2016}{nty/global/}
\abx@aux@defaultrefcontext{0}{Levine2006}{nty/global/}
\abx@aux@defaultrefcontext{0}{Mello}{nty/global/}
\abx@aux@defaultrefcontext{0}{Ray2007}{nty/global/}
\abx@aux@defaultrefcontext{0}{Roemheld}{nty/global/}
